Date/time	 9  Mode Anode PS V	10  Mode Anode PS I	11  Oil Temperature	12  Water In Temperature	13  Collector Temperature	15  Body Temperature	21  Magnet Current	25  Vac Ion	31  Filament V	32  Filament I	41  Klystron Average P	42  Reflected Power	52  High Voltage Kv	53  High Voltage Amp	55  Beam Amps	57  HV Phase A I	58  HV Phase B I	59  HV Phase C I	
11:41:32-01.09.00	0,94	0,07	0,02	10,01	10,01	10,01	0,01	0,00	0,00	0,02	0,24	1,04	0,02	0,00	0,00	0,09	0,09	0,09	
11:51:32-01.09.00	0,10	0,54	29,33	18,46	17,08	18,22	0,05	0,12	10,11	48,82	2,20	6,74	0,15	0,01	0,07	0,09	0,09	0,09	
12:01:32-01.09.00	0,17	0,27	29,13	19,78	18,40	19,49	30,25	0,07	10,15	48,49	2,38	10,38	0,15	0,02	0,06	0,09	0,11	0,09	
12:11:32-01.09.00	8,00	31,94	29,42	20,95	24,97	21,62	30,23	0,40	10,03	49,04	105,59	485,60	90,98	2,55	4,65	102,38	94,30	86,79	
12:21:33-01.09.00	8,01	32,21	29,50	21,79	25,94	22,32	30,31	0,35	10,02	48,95	100,22	426,71	90,16	2,51	4,57	99,52	91,53	85,78	
12:31:33-01.09.00	7,99	32,48	29,76	22,30	26,57	22,87	30,30	0,38	10,01	48,92	107,73	401,81	91,72	2,60	4,74	104,42	96,54	88,71	
12:41:33-01.09.00	8,02	32,11	30,41	22,66	26,98	23,41	30,32	0,41	10,03	48,90	105,90	381,58	91,47	2,59	4,71	103,64	96,20	88,87	
12:51:33-01.09.00	7,99	33,55	30,58	23,46	29,03	23,74	30,28	0,38	10,04	49,07	111,15	399,48	93,33	2,67	4,87	108,17	100,46	92,54	
13:01:33-01.09.00	7,97	13,29	30,88	20,81	21,97	21,01	30,23	0,26	10,11	48,64	2,75	12,71	58,73	1,24	2,28	40,99	37,83	35,89	
13:11:33-01.09.00	8,00	30,87	31,05	21,25	25,29	21,71	30,30	0,36	10,07	49,14	99,91	363,94	90,26	2,50	4,58	98,88	90,93	85,56	
13:21:33-01.09.00	8,00	33,89	31,40	22,41	27,19	23,04	30,28	0,57	10,06	49,17	120,79	473,66	94,84	2,75	5,00	112,29	104,55	95,90	
13:31:33-01.09.00	8,01	34,37	31,56	23,17	28,09	23,85	30,29	0,53	10,07	49,23	118,47	389,36	94,87	2,74	4,99	112,45	104,78	95,88	
13:41:33-01.09.00	8,00	3,49	31,88	19,50	18,23	19,59	30,33	0,18	10,13	48,29	1,34	13,23	19,29	0,17	0,31	17,85	16,69	15,29	
13:51:33-01.09.00	7,98	3,22	31,92	17,84	16,56	17,74	30,30	0,13	10,15	48,48	2,14	6,74	19,28	0,16	0,31	17,76	16,62	15,31	
14:01:33-01.09.00	7,99	33,37	31,97	21,41	25,92	21,84	30,30	0,42	10,10	49,22	115,42	437,09	93,78	2,68	4,90	106,96	99,31	92,97	
14:11:33-01.09.00	8,00	33,26	32,20	22,90	27,70	23,59	30,24	0,39	10,10	49,25	114,75	435,01	93,87	2,70	4,92	110,32	102,20	93,77	
14:21:33-01.09.00	7,99	17,38	32,29	21,94	22,12	22,35	30,31	0,78	9,95	48,20	23,62	92,86	65,34	1,48	2,72	50,77	45,75	44,68	
10:30:13-05.09.00	0,95	0,07	0,02	10,01	10,01	10,01	0,01	0,00	0,00	0,02	0,24	1,04	0,02	0,00	0,00	0,09	0,09	0,09	
10:40:15-05.09.00	0,11	0,39	24,42	18,88	17,64	18,69	30,18	0,25	9,94	48,45	2,99	7,00	0,16	0,02	0,06	0,09	0,11	0,09	
10:50:15-05.09.00	8,00	3,10	24,77	17,96	16,95	17,87	30,22	0,20	9,92	47,77	2,08	6,48	18,70	0,14	0,29	17,12	15,68	15,04	
11:00:15-05.09.00	8,01	8,73	25,23	17,05	18,30	18,45	30,18	0,13	10,06	48,67	2,87	8,82	47,46	0,70	0,13	27,37	25,04	24,93	
16:40:54-05.09.00	0,92	0,07	0,02	10,01	10,01	10,01	0,01	0,00	0,00	0,02	0,24	1,04	0,02	0,00	0,00	0,09	0,09	0,09	
16:50:54-05.09.00	0,16	0,47	23,31	16,52	15,24	16,25	30,21	0,06	10,10	49,20	2,99	8,30	0,21	0,03	0,07	0,09	0,09	0,09	
17:00:54-05.09.00	8,01	18,84	24,01	17,39	18,71	17,16	30,22	0,23	10,06	48,90	33,87	135,15	69,24	1,61	2,96	54,57	51,04	49,14	
17:10:54-05.09.00	8,00	37,30	24,50	21,26	26,41	21,95	30,24	0,82	9,99	49,23	143,86	796,10	96,50	2,93	5,34	127,56	118,17	109,57	
17:20:55-05.09.00	6,16	2,95	25,27	18,89	17,94	19,45	30,25	0,82	10,04	48,27	2,26	10,12	15,48	0,20	0,32	18,01	16,87	16,73	
17:30:55-05.09.00	8,05	7,93	20,73	17,65	18,36	19,70	30,28	0,70	10,04	48,34	2,75	15,05	41,73	0,76	1,36	27,19	25,73	24,95	
17:40:55-05.09.00	8,01	35,42	30,27	22,02	25,66	19,22	30,27	0,81	10,00	49,19	2,38	7,00	96,36	2,80	5,10	110,16	104,14	100,57	
17:50:55-05.09.00	8,03	12,75	15,60	16,90	19,08	19,51	30,31	0,92	10,02	48,51	11,72	79,38	57,65	1,29	2,30	41,11	38,73	37,81	
08:05:16-06.09.00	0,91	0,07	0,02	10,01	10,01	10,01	0,01	0,00	0,00	0,02	0,24	1,04	0,02	0,00	0,00	0,09	0,09	0,09	
11:10:17-06.09.00	0,93	1,73	0,02	10,01	10,01	10,01	0,01	0,00	0,00	0,02	0,24	1,04	0,02	0,00	0,00	0,09	0,09	0,09	
11:20:18-06.09.00	0,17	0,49	25,05	16,79	15,56	16,54	30,26	0,18	10,18	49,48	2,69	10,38	0,19	0,02	0,06	0,09	0,09	0,09	
11:30:18-06.09.00	8,01	3,27	25,35	15,89	14,82	16,06	30,24	0,16	10,11	48,62	2,32	8,30	19,31	0,16	0,31	17,37	16,25	15,29	
11:40:18-06.09.00	7,98	3,24	25,45	15,90	14,82	15,74	30,28	0,14	10,15	48,57	2,08	8,30	19,28	0,16	0,30	17,49	16,30	15,27	
11:50:18-06.09.00	8,02	25,13	25,78	18,25	21,33	18,33	30,30	0,36	10,11	49,08	60,30	319,58	79,88	2,06	3,77	71,11	66,44	64,02	
12:00:18-06.09.00	8,01	25,50	26,07	20,50	23,69	20,84	30,26	0,43	10,05	48,98	58,65	317,50	80,28	2,08	3,79	72,05	67,36	64,59	
12:10:18-06.09.00	7,98	26,94	26,31	21,27	26,16	21,49	30,27	0,36	10,05	48,99	2,87	7,78	83,26	2,20	4,00	78,32	72,53	70,06	
12:20:18-06.09.00	8,01	7,65	26,65	19,61	19,37	19,75	30,27	0,26	10,08	48,44	2,26	9,08	41,08	0,67	1,25	26,62	25,20	24,47	
12:30:18-06.09.00	8,00	29,64	27,06	20,26	25,82	20,18	30,25	0,31	10,04	49,13	2,20	9,08	87,40	2,37	4,33	88,19	81,50	78,53	
12:40:18-06.09.00	8,02	28,77	27,19	22,37	28,13	22,54	30,30	0,30	10,03	49,10	2,14	10,89	87,48	2,37	4,35	88,44	82,15	78,53	
12:50:18-06.09.00	8,00	24,69	27,64	21,84	24,68	22,26	30,30	0,32	10,06	49,05	59,51	259,66	79,10	2,02	3,69	70,04	65,44	63,15	
13:00:18-06.09.00	8,00	24,23	27,97	21,45	24,29	21,91	30,25	0,31	10,09	49,10	58,72	244,35	79,23	2,02	3,71	70,27	65,64	62,99	
13:10:18-06.09.00	7,97	24,57	28,39	21,34	24,36	21,84	30,32	0,32	10,07	49,06	58,17	233,46	79,26	2,03	3,71	70,38	65,53	62,99	
13:20:18-06.09.00	8,04	24,82	28,61	21,41	24,78	21,85	30,34	0,31	10,07	49,07	43,52	208,30	79,22	2,03	3,70	70,66	65,64	62,85	
13:30:18-06.09.00	8,01	24,70	29,08	21,53	24,83	21,91	30,36	0,29	10,05	49,00	42,60	220,49	79,17	2,03	3,70	70,18	65,35	62,87	
13:40:18-06.09.00	8,02	27,97	29,39	21,93	26,13	22,25	30,35	0,30	10,09	49,22	65,86	327,36	85,40	2,29	4,17	83,18	77,20	73,88	
13:50:19-06.09.00	8,04	25,30	29,47	22,06	25,31	22,65	30,36	0,28	10,10	49,11	62,68	271,07	80,51	2,08	3,80	72,60	67,82	65,23	
14:00:19-06.09.00	7,98	25,23	29,85	21,83	24,99	22,37	30,36	0,29	10,10	49,18	62,19	268,22	80,53	2,09	3,82	72,74	67,86	65,09	
14:10:19-06.09.00	8,00	24,92	29,96	21,71	24,89	22,13	30,35	0,28	10,09	49,01	62,07	266,40	80,64	2,09	3,82	72,88	68,07	65,14	
14:20:19-06.09.00	7,99	25,18	30,16	21,75	24,65	22,02	30,31	0,27	10,12	49,26	62,87	265,88	80,69	2,09	3,82	72,60	68,05	65,48	
14:30:19-06.09.00	7,99	25,04	30,65	21,52	24,57	21,93	30,37	0,26	10,13	49,19	62,50	262,77	80,68	2,08	3,81	72,85	68,02	65,03	
14:40:19-06.09.00	8,01	25,30	30,92	21,57	24,51	21,86	30,33	0,28	10,10	49,19	61,16	256,03	80,60	2,09	3,81	73,24	68,23	65,07	
14:50:19-06.09.00	8,00	25,06	31,01	21,41	24,48	21,79	30,33	0,27	10,12	49,23	62,68	276,26	80,73	2,09	3,81	72,76	68,28	65,57	
15:00:19-06.09.00	8,01	24,84	30,95	21,28	24,08	21,71	30,38	0,26	9,97	48,68	59,08	258,36	79,65	2,04	3,74	71,34	66,67	64,09	
15:10:19-06.09.00	8,00	26,64	31,13	21,53	24,75	21,81	30,33	0,25	9,99	48,73	67,75	304,02	82,31	2,15	3,93	76,88	71,39	68,85	
15:20:19-06.09.00	7,99	26,30	31,45	21,61	25,63	21,83	30,32	0,26	9,98	48,82	67,44	297,01	82,33	2,16	3,94	76,93	71,34	68,80	
15:30:19-06.09.00	8,00	26,23	32,07	21,68	24,89	22,01	30,37	0,25	9,99	48,87	67,81	297,53	82,33	2,16	3,95	76,95	71,39	68,71	
15:40:19-06.09.00	8,01	26,67	32,29	21,69	24,90	22,06	30,36	0,26	9,98	48,83	68,60	294,68	82,44	2,16	3,95	77,32	71,69	68,96	
15:50:19-06.09.00	8,01	26,45	32,69	21,59	24,81	21,98	30,38	0,26	10,00	48,82	67,99	297,01	82,41	2,16	3,94	77,18	71,50	69,03	
16:00:19-06.09.00	7,99	26,75	32,53	21,33	24,60	21,43	30,38	0,26	9,99	48,78	68,24	302,98	82,47	2,17	3,94	77,06	71,64	68,69	
16:10:19-06.09.00	8,00	26,36	32,26	21,12	24,31	21,53	30,34	0,25	9,99	48,82	68,54	303,76	82,62	2,16	3,95	77,27	71,89	69,10	
16:20:19-06.09.00	7,99	26,52	32,01	20,78	23,98	20,95	30,38	0,25	10,05	48,98	69,95	324,51	82,62	2,17	3,97	77,43	71,89	69,63	
16:30:19-06.09.00	8,01	26,74	32,10	20,57	23,80	20,89	30,40	0,25	10,02	49,02	68,97	328,92	82,64	2,17	3,97	77,61	71,80	69,44	
16:40:19-06.09.00	8,00	14,39	31,30	20,13	22,76	20,54	30,35	0,27	10,04	48,50	13,18	55,51	60,36	1,24	2,30	39,07	36,53	35,36	
07:56:48-18.09.00	0,93	0,07	0,02	10,01	10,01	10,01	0,01	0,00	0,12	0,02	0,24	1,04	0,02	0,00	0,00	0,09	0,09	0,09	
08:06:49-18.09.00	0,12	0,41	22,13	15,15	13,97	14,93	22,00	0,04	195,24	0,08	4,52	7,52	0,17	0,02	8,90	0,09	0,09	0,11	
08:28:01-18.09.00	0,91	0,07	0,02	10,01	10,01	10,01	0,01	0,00	0,16	0,02	0,24	1,04	0,02	0,00	0,00	0,09	0,09	0,09	
08:38:03-18.09.00	0,13	0,68	22,26	16,22	14,99	16,02	21,93	0,05	195,57	0,04	4,58	13,23	0,21	0,02	8,90	0,14	0,09	0,09	
08:48:03-18.09.00	0,11	0,36	22,60	16,69	15,43	16,52	22,00	0,05	200,78	0,02	5,62	9,60	0,16	0,02	8,90	0,09	0,09	0,09	
08:58:03-18.09.00	0,13	0,53	22,91	17,15	15,89	16,98	21,97	0,04	17,08	0,02	4,52	8,82	0,16	0,03	8,90	0,09	0,09	0,09	
09:08:03-18.09.00	0,15	0,61	23,55	17,60	17,40	17,45	22,03	0,04	17,08	0,02	5,43	10,12	0,13	0,03	8,90	0,14	0,09	0,09	
09:18:03-18.09.00	0,15	0,25	23,98	18,10	17,86	17,83	21,95	0,03	17,04	0,02	4,21	10,89	0,18	0,02	8,90	0,09	0,14	0,09	
09:28:03-18.09.00	0,12	0,34	24,47	18,40	18,28	18,28	21,96	0,03	17,06	0,04	5,92	8,82	0,12	0,03	8,90	0,16	0,09	0,09	
09:38:03-18.09.00	0,14	0,36	24,98	17,38	17,18	17,36	21,92	0,03	17,09	0,04	5,07	7,26	0,11	0,03	8,90	0,11	0,09	0,09	
09:48:03-18.09.00	0,12	0,37	25,31	17,94	17,62	17,67	21,89	0,03	17,04	0,06	5,07	9,86	0,19	0,03	8,90	0,11	0,09	0,09	
09:58:03-18.09.00	0,13	0,42	25,71	18,23	18,16	18,09	21,83	0,05	17,04	0,06	5,25	12,19	0,12	0,03	8,90	0,14	0,09	0,11	
10:08:03-18.09.00	0,16	0,51	26,09	17,49	17,25	17,57	21,86	0,03	17,07	0,02	4,27	10,12	0,12	0,02	8,90	0,30	0,09	0,09	
10:18:03-18.09.00	0,14	0,59	26,28	17,79	17,52	17,60	21,87	0,06	17,08	0,06	5,86	6,74	0,14	0,02	8,90	0,09	0,09	0,09	
10:28:03-18.09.00	0,16	0,61	26,31	18,20	18,04	18,05	21,84	0,05	17,09	0,02	5,31	10,64	0,24	0,02	8,90	0,11	0,09	0,09	
10:38:03-18.09.00	0,15	0,81	26,83	17,91	17,74	17,97	21,82	0,05	17,02	0,02	5,43	6,23	0,22	0,02	8,90	0,25	0,11	0,09	
10:48:03-18.09.00	0,16	0,81	26,89	17,68	17,47	17,58	21,79	0,04	17,09	0,03	4,15	14,27	0,18	0,02	8,90	0,09	0,09	0,09	
10:58:03-18.09.00	0,14	0,36	27,34	18,14	18,02	18,03	21,85	0,04	17,04	0,08	4,88	10,38	0,18	0,02	8,90	0,09	0,09	0,09	
11:08:03-18.09.00	0,14	0,37	27,55	17,92	17,81	18,01	21,80	0,05	17,07	0,02	5,37	6,48	0,21	0,02	8,90	0,11	0,09	0,09	
11:18:04-18.09.00	0,14	0,37	27,82	17,75	17,43	17,52	21,87	0,05	17,09	0,04	5,49	9,86	0,14	0,02	8,90	0,09	0,23	0,32	
11:47:43-18.09.00	0,89	0,07	0,02	10,01	10,01	10,01	0,01	0,00	0,02	0,02	0,24	1,04	0,02	0,00	0,00	0,09	0,11	0,09	
11:57:43-18.09.00	0,14	0,80	28,22	18,13	17,98	17,95	21,96	0,05	17,02	0,02	5,31	7,00	0,12	0,03	8,90	0,21	0,09	0,09	
12:07:43-18.09.00	0,13	0,68	28,50	18,07	17,99	18,10	21,94	0,03	17,01	0,07	4,70	8,82	0,08	0,02	8,90	0,09	0,09	0,09	
12:17:43-18.09.00	0,12	0,27	28,74	17,69	17,46	17,53	21,79	0,04	16,99	0,02	5,19	5,45	0,14	0,02	8,90	0,25	0,09	0,09	
12:27:43-18.09.00	0,13	0,66	28,89	18,36	18,19	18,19	21,79	0,02	17,04	0,04	5,13	8,30	0,12	0,03	8,90	0,09	0,09	0,09	
12:37:43-18.09.00	0,13	0,44	28,99	17,53	17,28	17,51	21,84	0,04	16,97	0,03	5,55	8,56	0,22	0,02	8,90	0,09	0,09	0,11	
12:47:43-18.09.00	0,15	0,81	29,06	18,07	17,76	17,83	21,81	0,03	17,00	0,04	4,76	9,60	0,15	0,02	8,90	0,11	0,14	0,09	
12:57:43-18.09.00	0,13	0,37	29,03	18,38	18,27	18,29	21,77	0,03	16,99	0,02	4,82	10,12	0,15	0,02	8,90	0,09	0,09	0,09	
13:07:43-18.09.00	0,14	0,54	29,14	17,70	17,49	17,49	21,76	0,04	17,00	0,04	5,55	22,31	19,99	0,03	8,90	17,28	16,20	15,08	
13:17:43-18.09.00	0,11	0,39	29,29	18,28	18,15	18,08	21,75	0,03	16,97	0,03	5,31	7,78	19,91	0,04	8,90	17,30	16,07	15,08	
13:27:43-18.09.00	0,12	0,32	29,21	17,61	17,31	17,54	21,75	0,03	17,05	0,05	6,16	6,23	0,22	0,03	8,90	0,18	0,09	0,11	
13:37:43-18.09.00	0,15	0,66	29,21	18,01	17,84	17,80	21,76	0,03	17,06	0,04	4,58	11,67	20,03	0,03	8,90	17,19	16,18	15,01	
13:47:43-18.09.00	0,15	0,86	29,30	18,51	18,34	18,37	21,71	0,03	16,92	0,08	5,49	11,41	19,87	0,03	8,90	17,17	16,09	15,04	
06:52:46-19.09.00	0,94	0,07	0,02	10,01	10,01	10,01	0,01	0,00	0,01	0,02	0,24	1,04	0,02	0,00	0,00	0,11	0,09	0,09	
07:02:47-19.09.00	0,13	0,46	26,06	16,68	16,32	16,44	21,97	0,05	17,04	0,03	5,55	6,48	0,09	0,01	0,00	0,11	0,09	0,09	
07:12:47-19.09.00	0,13	0,42	26,18	15,54	15,02	15,79	21,97	0,03	17,06	0,02	5,62	8,04	0,19	0,02	0,00	0,18	0,16	0,09	
07:22:47-19.09.00	0,17	0,85	26,27	15,34	14,84	15,24	22,04	0,03	17,09	0,06	4,03	10,12	0,16	0,02	0,00	0,09	0,09	0,09	
07:32:47-19.09.00	0,15	0,90	26,38	15,81	15,31	15,64	22,00	0,03	17,02	0,03	4,52	7,78	0,20	0,02	0,00	0,09	0,09	0,09	
07:42:47-19.09.00	0,14	0,73	26,66	16,18	15,73	15,98	22,01	0,03	17,08	0,06	5,13	9,34	0,08	0,02	0,00	0,11	0,09	0,09	
07:52:47-19.09.00	0,17	0,59	26,92	16,59	16,27	16,43	21,98	0,03	17,10	0,04	4,82	9,08	19,94	0,01	0,00	17,05	15,79	15,17	
08:02:47-19.09.00	0,14	0,25	27,27	17,03	16,77	16,89	22,04	0,03	17,02	0,07	4,33	6,74	0,15	0,03	0,00	0,09	0,09	0,09	
08:12:47-19.09.00	0,14	0,75	27,46	17,46	17,17	17,28	22,00	0,03	17,06	0,02	5,07	6,74	0,14	0,03	0,00	0,16	0,09	0,11	
08:22:47-19.09.00	0,15	0,76	27,86	17,86	17,63	17,63	21,96	0,02	17,03	0,08	5,86	6,74	0,16	0,02	0,00	0,09	0,09	0,14	
08:32:47-19.09.00	0,16	0,49	28,02	18,15	18,10	18,03	21,88	0,03	16,97	0,06	5,13	7,52	19,85	0,03	0,00	17,28	16,27	14,81	
08:42:47-19.09.00	0,16	0,42	28,42	18,43	18,33	18,30	21,89	0,03	16,96	0,06	5,19	4,15	19,90	0,02	0,00	16,78	15,56	14,69	
08:52:47-19.09.00	0,15	0,49	28,58	17,60	17,32	17,47	21,85	0,02	17,01	0,02	5,55	9,34	19,98	0,02	0,00	16,82	15,88	14,74	
09:02:47-19.09.00	0,15	0,41	28,91	18,05	17,86	17,86	21,87	0,03	17,05	0,03	4,70	7,78	0,21	0,02	0,00	0,11	0,11	0,09	
09:12:47-19.09.00	0,17	0,31	28,86	18,48	18,39	18,25	21,81	0,01	16,90	0,06	4,82	1,56	0,30	0,02	0,00	0,09	0,09	0,09	
09:22:47-19.09.00	0,15	0,53	28,90	17,44	17,21	17,34	21,84	0,02	17,06	0,05	4,52	9,34	0,18	0,03	0,00	0,18	0,09	0,11	
09:32:47-19.09.00	0,12	0,42	29,02	17,79	17,62	17,65	21,86	0,03	17,02	0,06	4,94	8,30	0,19	0,03	0,00	0,16	0,09	0,09	
09:42:47-19.09.00	0,14	0,93	29,00	18,33	18,15	18,15	21,79	0,03	17,03	0,04	4,76	8,56	0,21	0,03	0,00	0,11	0,09	0,14	
09:52:47-19.09.00	0,16	0,54	29,32	17,49	17,23	17,48	21,81	0,04	17,25	0,03	5,55	9,34	0,23	0,03	0,00	0,09	0,11	0,14	
10:02:47-19.09.00	0,14	0,34	29,22	17,94	17,72	17,79	21,82	0,04	17,29	0,02	4,58	4,67	0,26	0,02	0,00	0,09	0,09	0,16	
10:12:47-19.09.00	0,16	0,36	29,17	18,33	18,25	18,19	21,80	0,03	17,26	0,06	5,37	10,38	0,20	0,02	0,00	0,09	0,14	0,09	
12:09:57-19.09.00	0,94	0,07	0,02	10,01	10,01	10,01	0,01	0,00	0,01	0,02	0,24	1,04	0,02	0,00	0,00	0,09	0,09	0,09	
12:19:57-19.09.00	0,15	0,81	28,55	17,94	17,64	17,70	22,04	0,03	17,23	0,09	5,07	9,34	0,11	0,02	8,90	0,11	0,09	0,11	
12:29:57-19.09.00	0,14	0,44	28,78	18,42	18,25	18,17	22,02	0,03	17,27	0,12	4,33	5,19	0,14	0,02	8,90	0,14	0,09	0,09	
12:39:57-19.09.00	14,51	0,20	28,59	17,45	17,15	17,35	21,91	0,02	17,28	0,02	5,25	2,08	0,24	0,03	8,90	0,09	0,09	0,09	
12:49:57-19.09.00	1,24	0,41	28,77	17,99	17,75	17,79	21,94	0,03	17,21	0,08	4,70	5,19	0,15	0,02	8,90	0,09	0,11	0,09	
12:59:57-19.09.00	0,13	0,37	28,99	18,47	18,29	18,25	21,87	0,03	17,22	0,02	5,19	11,41	0,17	0,02	8,90	0,09	0,11	0,11	
13:09:57-19.09.00	0,15	0,86	28,89	17,56	17,26	17,40	21,87	0,02	17,28	0,02	4,88	9,86	0,20	0,02	8,90	0,14	0,09	0,14	
13:19:57-19.09.00	0,13	0,85	29,02	18,10	17,85	17,84	21,86	0,03	17,24	0,02	5,62	4,67	0,18	0,02	8,90	0,16	0,09	0,16	
13:29:57-19.09.00	0,13	0,73	29,08	18,24	18,14	18,13	21,80	0,04	17,17	0,03	5,07	9,60	0,21	0,02	8,90	0,09	0,09	0,18	
13:39:57-19.09.00	0,12	0,64	29,13	17,29	17,00	17,19	21,72	0,03	17,31	0,03	4,64	11,15	0,14	0,02	8,90	0,18	0,09	0,09	
13:49:57-19.09.00	0,12	0,49	29,17	17,90	17,64	17,69	21,75	0,03	17,34	0,02	4,94	7,52	0,14	0,02	8,90	0,09	0,09	0,09	
13:59:57-19.09.00	22,00	0,59	29,10	18,19	18,07	18,10	21,77	0,03	17,29	0,05	4,76	9,08	20,35	0,04	8,90	17,83	16,41	15,17	
14:09:58-19.09.00	22,00	0,29	29,22	18,32	18,18	18,17	21,81	0,03	17,30	0,07	4,33	8,56	20,30	0,03	8,90	17,76	16,48	15,31	
14:19:58-19.09.00	22,00	0,41	29,36	17,37	17,03	17,27	21,76	0,02	17,29	0,05	4,82	7,00	20,34	0,02	8,90	17,49	16,48	15,31	
14:29:58-19.09.00	0,13	0,70	29,33	17,50	17,19	17,33	21,80	0,04	17,32	0,02	4,64	8,82	35,14	0,03	8,90	21,70	20,48	18,81	
14:39:58-19.09.00	0,14	0,07	29,38	17,58	17,33	17,49	21,84	0,03	17,32	0,02	5,25	7,52	35,03	0,03	8,90	21,84	20,48	18,36	
14:49:58-19.09.00	29,75	0,39	29,39	17,74	17,37	17,54	21,83	0,04	17,34	0,05	5,07	9,08	43,57	0,03	8,90	24,12	22,71	21,06	
14:59:58-19.09.00	30,94	1,53	29,31	18,43	18,53	18,27	21,80	0,03	17,35	0,02	4,82	8,82	33,68	0,28	8,90	21,93	20,87	19,13	
15:09:58-19.09.00	30,03	1,39	29,38	17,58	17,55	17,64	21,77	0,03	17,35	0,02	5,31	7,26	33,61	0,28	8,90	21,97	20,90	19,09	
15:19:58-19.09.00	32,41	0,97	29,53	17,37	17,05	17,23	21,77	0,03	17,33	0,06	5,25	7,52	28,56	0,07	8,90	20,58	19,57	18,08	
15:29:58-19.09.00	32,41	3,95	29,55	17,80	18,29	17,67	21,85	0,04	17,32	0,07	6,04	15,56	50,09	0,48	8,90	26,41	24,95	23,80	
15:39:58-19.09.00	29,85	4,98	29,51	18,31	19,12	18,22	21,80	0,04	17,31	0,04	5,43	9,60	55,39	0,64	8,90	30,01	28,84	26,87	
15:49:58-19.09.00	30,94	4,78	29,55	18,66	19,55	18,56	21,81	0,04	17,33	0,09	4,33	6,74	55,47	0,64	8,90	29,96	29,02	26,82	
15:59:58-19.09.00	31,13	9,60	29,56	18,35	21,10	18,42	21,78	0,05	17,35	0,07	5,25	9,34	75,86	1,33	8,90	53,03	49,58	45,80	
16:09:58-19.09.00	30,58	0,95	29,65	17,48	17,26	17,46	21,78	0,03	17,13	0,03	5,74	6,23	30,56	0,07	8,90	22,16	21,24	18,81	
16:19:58-19.09.00	28,29	7,27	29,68	18,63	20,21	18,60	21,76	0,04	17,11	0,06	5,92	4,41	58,36	0,73	8,90	32,80	31,31	27,47	
16:29:58-19.09.00	31,49	13,94	29,56	19,32	22,82	19,38	21,77	0,06	17,10	0,04	5,19	9,34	80,97	1,54	8,90	60,29	56,81	50,74	
16:39:58-19.09.00	31,68	12,00	29,69	19,09	22,55	18,98	21,73	0,05	17,08	0,08	5,07	11,93	81,79	1,57	8,90	56,72	53,31	51,27	
16:49:58-19.09.00	24,44	0,07	29,91	19,10	19,43	19,65	21,71	0,06	17,11	0,04	5,62	7,78	0,22	0,02	8,90	0,09	0,09	0,30	
16:59:59-19.09.00	30,58	0,29	29,89	17,12	16,84	17,08	21,75	0,04	17,13	0,04	4,82	9,08	20,11	0,03	8,90	16,78	15,77	14,99	
17:09:59-19.09.00	30,67	8,00	29,68	17,70	19,51	17,52	21,81	0,04	17,06	0,05	4,39	8,30	69,09	1,10	8,90	40,81	38,57	37,70	
17:19:59-19.09.00	29,85	11,90	29,72	19,49	23,21	19,64	21,77	0,05	16,99	0,09	5,80	9,34	82,21	1,60	8,90	57,61	54,68	52,00	
17:29:59-19.09.00	31,59	13,53	29,81	19,36	23,59	19,57	21,74	0,05	17,03	0,05	5,19	9,08	85,57	1,73	8,90	63,77	60,36	58,16	
06:33:28-20.09.00	64,27	0,07	0,02	10,01	10,01	10,01	0,01	0,00	0,01	0,02	0,24	1,04	0,02	0,00	0,00	0,09	0,09	0,09	
06:43:28-20.09.00	10,53	0,78	27,14	16,59	16,14	16,33	21,95	0,06	17,38	0,03	5,62	7,00	0,15	0,03	8,90	0,11	0,09	0,09	
06:53:28-20.09.00	8,61	0,68	27,15	14,28	13,58	14,30	22,00	0,02	17,32	0,05	5,68	9,34	0,16	0,02	8,90	0,09	0,09	0,11	
07:03:28-20.09.00	32,14	0,42	27,46	14,78	14,15	14,73	22,01	0,03	17,25	0,02	4,64	7,00	0,14	0,02	8,90	0,18	0,09	0,16	
07:13:28-20.09.00	10,07	0,78	27,25	15,28	14,71	15,15	22,02	0,03	17,26	0,02	5,37	6,48	0,18	0,01	8,90	0,18	0,09	0,09	
07:23:28-20.09.00	9,06	0,73	27,58	15,76	15,17	15,58	22,00	0,03	17,27	0,03	4,76	9,60	0,15	0,02	8,90	0,11	0,11	0,09	
07:33:28-20.09.00	11,35	0,39	27,91	16,12	15,76	16,00	22,02	0,03	17,25	0,05	4,52	10,38	0,18	0,02	8,90	0,09	0,09	0,09	
07:43:28-20.09.00	31,68	2,93	28,17	16,69	16,71	16,55	22,02	0,04	17,24	0,02	5,62	8,56	43,00	0,30	8,90	24,06	23,00	21,58	
07:53:28-20.09.00	31,77	4,83	28,45	17,94	18,62	17,74	21,95	0,04	17,24	0,07	4,70	32,68	55,19	0,63	8,90	29,30	27,72	26,73	
08:03:28-20.09.00	27,74	0,32	28,53	19,37	20,12	21,05	21,88	0,37	17,21	0,04	5,62	14,01	0,26	0,03	8,90	0,09	0,09	0,09	
08:13:28-20.09.00	28,75	6,46	28,85	18,76	19,95	18,86	21,83	0,05	17,20	0,08	5,37	168,61	64,79	0,94	8,90	36,94	34,19	33,05	
08:23:28-20.09.00	30,03	10,60	28,80	18,53	20,43	20,17	21,75	0,08	17,20	0,05	5,25	390,40	78,87	1,47	8,90	55,18	51,59	49,10	
08:33:28-20.09.00	30,12	11,29	28,93	19,64	22,98	20,30	21,77	0,05	17,17	0,07	5,55	10,38	79,80	1,50	8,90	59,42	55,30	49,55	
08:43:29-20.09.00	31,49	5,73	29,25	18,06	18,96	18,28	21,73	0,08	17,18	0,05	5,07	138,78	62,82	0,88	8,90	35,11	32,55	31,01	
08:53:29-20.09.00	31,22	8,31	29,38	18,80	19,98	19,14	21,72	0,05	17,22	0,08	5,00	200,52	71,61	1,19	8,90	45,52	42,55	40,44	
09:03:29-20.09.00	30,67	7,32	29,27	19,32	21,43	19,53	21,73	0,05	17,15	0,08	5,13	11,67	69,03	1,10	8,90	41,89	39,41	37,93	
09:13:29-20.09.00	32,41	7,27	29,61	19,10	21,20	19,11	21,72	0,05	17,19	0,06	4,64	8,30	69,24	1,09	8,90	42,23	39,30	38,13	
09:23:29-20.09.00	29,66	7,73	29,47	18,92	20,94	19,10	21,74	0,05	17,17	0,09	4,39	8,04	69,20	1,10	8,90	42,00	39,07	38,20	
09:33:29-20.09.00	29,94	7,53	29,56	19,52	21,72	19,55	21,70	0,04	17,17	0,04	4,76	11,41	69,24	1,09	8,90	42,21	39,28	38,29	
09:43:29-20.09.00	32,59	7,61	29,71	18,64	20,60	18,74	21,62	0,04	17,14	0,02	5,19	8,56	69,09	1,10	8,90	42,25	39,39	37,99	
09:53:29-20.09.00	31,31	7,90	29,55	19,26	21,65	19,49	21,69	0,03	17,19	0,04	4,88	7,26	69,06	1,09	8,90	42,05	39,44	38,15	
10:03:29-20.09.00	30,76	7,46	29,83	19,07	21,46	18,96	21,73	0,04	17,21	0,03	4,76	7,52	69,28	1,10	8,90	42,00	39,32	38,18	
10:13:29-20.09.00	30,67	7,65	29,80	18,33	19,37	18,90	21,73	0,05	17,09	0,05	6,16	227,75	68,78	1,08	8,90	41,47	38,96	37,90	
10:23:29-20.09.00	29,30	2,53	29,95	18,29	18,47	18,34	21,75	0,04	17,14	0,07	5,49	12,71	39,69	0,23	8,90	23,14	21,93	21,17	
10:33:29-20.09.00	30,76	4,17	30,13	18,85	19,41	18,82	21,71	0,03	17,13	0,04	5,19	6,23	49,78	0,47	8,90	25,79	24,15	23,37	
10:43:29-20.09.00	30,76	4,05	30,10	17,84	18,25	17,86	21,77	0,04	17,14	0,03	5,31	5,97	49,67	0,47	8,90	25,66	24,19	23,37	
10:53:29-20.09.00	30,30	4,43	30,02	18,41	18,95	18,32	21,78	0,04	17,15	0,04	5,49	9,60	49,68	0,47	8,90	25,52	24,22	23,32	
11:03:29-20.09.00	30,30	3,81	29,82	18,72	19,27	18,72	21,80	0,04	17,09	0,04	0,05	19,45	49,82	0,47	8,90	25,68	24,24	23,53	
11:13:29-20.09.00	33,51	4,19	30,05	17,82	18,26	17,98	21,77	0,04	17,11	0,08	0,06	54,73	49,56	0,47	8,90	25,63	24,35	23,48	
11:23:30-20.09.00	30,94	4,05	30,27	18,33	18,85	18,23	21,74	0,03	17,09	0,04	0,05	9,60	49,64	0,48	8,90	25,86	24,06	22,93	
11:33:30-20.09.00	30,67	3,98	30,03	18,96	19,57	18,85	21,75	0,03	17,08	0,08	0,05	6,74	49,67	0,48	8,90	25,47	24,17	23,16	
11:43:30-20.09.00	30,03	3,80	30,10	18,05	18,55	17,96	21,80	0,04	17,11	0,07	0,05	9,08	49,80	0,48	8,90	25,75	24,12	23,46	
11:53:30-20.09.00	30,40	0,34	30,02	18,53	18,44	18,41	21,74	0,03	17,14	0,02	0,05	10,12	20,18	0,03	8,90	17,21	16,14	14,88	
12:03:30-20.09.00	23,71	0,53	30,13	18,53	18,49	18,40	21,77	0,03	17,17	0,05	0,05	7,26	0,27	0,03	8,90	0,09	0,09	0,09	
12:13:30-20.09.00	13,46	0,61	30,05	18,54	18,49	18,42	21,71	0,05	17,12	0,04	0,05	12,45	0,22	0,03	8,90	0,14	0,16	0,18	
12:23:30-20.09.00	29,94	0,07	29,88	18,71	18,63	18,51	21,73	0,03	17,05	0,06	0,05	10,64	20,04	0,02	8,90	17,10	16,20	15,27	
12:33:30-20.09.00	28,20	0,12	30,12	18,66	18,64	18,62	21,75	0,04	17,06	0,07	0,06	20,49	20,21	0,03	8,90	17,19	16,07	14,79	
12:43:30-20.09.00	9,43	0,12	29,96	17,61	17,40	17,50	21,82	0,03	17,10	0,05	0,05	7,78	20,12	0,03	8,90	17,26	16,27	14,97	
12:53:30-20.09.00	30,40	0,12	30,12	17,83	17,76	17,77	21,78	0,03	17,14	0,04	0,05	8,82	20,22	0,02	8,90	16,85	16,07	14,97	
13:03:30-20.09.00	31,40	0,54	30,03	18,06	17,92	17,93	21,77	0,03	17,11	0,03	0,04	8,04	20,21	0,03	8,90	17,30	16,14	14,95	
13:13:30-20.09.00	8,51	0,20	29,93	17,97	17,82	17,91	21,77	0,03	17,09	0,05	0,05	9,60	20,17	0,03	8,90	17,19	16,37	15,11	
13:23:30-20.09.00	411,25	0,68	29,86	17,96	17,78	17,82	21,81	0,04	17,17	0,04	0,06	12,71	0,19	0,03	0,00	0,09	0,09	0,18	
13:33:30-20.09.00	51,09	1,51	29,86	18,10	17,99	17,96	21,85	0,03	17,14	0,02	0,05	10,38	0,16	0,03	0,00	0,09	0,11	0,09	
13:43:31-20.09.00	111,42	0,73	29,84	18,00	17,95	17,90	21,81	0,04	17,19	0,03	0,05	6,23	0,10	0,03	0,00	0,23	0,25	0,11	
10:42:47-25.09.00	2,67	0,07	0,02	10,01	10,01	10,01	0,01	0,00	0,01	0,06	0,00	1,04	0,02	0,00	0,00	0,09	0,14	0,11	
10:52:47-25.09.00	3,27	0,68	21,97	16,51	16,17	16,30	22,06	0,03	0,02	0,06	0,05	13,75	0,18	0,03	8,90	0,09	0,25	0,11	
11:02:48-25.09.00	0,77	1,37	22,27	17,12	16,81	16,89	21,99	0,20	0,04	0,05	0,06	10,12	0,22	0,03	8,90	0,09	0,21	0,11	
11:12:48-25.09.00	2,61	0,73	22,69	17,65	17,48	17,53	22,02	0,03	17,29	0,10	0,06	5,97	0,18	0,02	8,90	0,09	0,09	0,14	
11:22:48-25.09.00	22,35	0,88	23,32	18,20	18,09	18,06	21,98	0,03	17,28	0,03	0,05	11,15	20,08	0,03	8,90	17,74	16,62	15,43	
11:32:48-25.09.00	29,93	2,31	23,84	18,83	18,96	18,65	21,98	0,03	17,26	0,07	0,05	8,82	38,21	0,21	8,90	22,57	21,06	20,19	
11:42:48-25.09.00	9,65	0,81	24,34	19,73	19,83	19,63	21,90	0,02	17,30	0,04	0,08	11,15	0,35	0,03	8,90	0,09	0,23	0,09	
11:52:48-25.09.00	27,58	3,32	24,85	20,43	21,02	20,31	21,82	0,04	17,19	0,03	0,06	4,41	43,17	0,31	8,90	24,42	22,77	21,56	
12:02:48-25.09.00	6,45	0,15	25,15	21,10	21,49	21,10	21,78	0,03	17,30	0,05	0,05	10,64	0,25	0,04	8,90	0,21	0,09	0,16	
