%!PS-Adobe-2.0 EPSF-1.2
%%Creator: MATLAB, The Mathworks, Inc.
%%Title: MATLAB graph
%%CreationDate: 04/21/94  10:47:10
%%DocumentFonts: Times-Roman
%%DocumentNeededFonts: Times-Roman
%%DocumentProcessColors: Cyan Magenta Yellow Black
%%Pages: 1
%%BoundingBox:    56   201   557   598
%%EndComments

%%BeginProlog

% MathWorks dictionary
/MathWorks 120 dict begin

% definition operators
/bdef {bind def} bind def
/ldef {load def} bind def
/xdef {exch def} bdef
/xstore {exch store} bdef

% operator abbreviations
/c  /clip ldef
/cc /concat ldef
/cp /closepath ldef
/gr /grestore ldef
/gs /gsave ldef
/mt /moveto ldef
/np /newpath ldef
/cm /currentmatrix ldef
/sm /setmatrix ldef
/rc {rectclip} bdef
/rf {rectfill} bdef
/rm /rmoveto ldef
/rl /rlineto ldef
/s /show ldef
/sc /setrgbcolor ldef
/w /setlinewidth ldef
/cap /setlinecap ldef

% page state control
/pgsv () def
/bpage {/pgsv save def} bdef
/epage {pgsv restore} bdef
/bplot /gsave ldef
/eplot {stroke grestore} bdef

% orientation switch
/portraitMode 	0 def
/landscapeMode 	1 def

% coordinate system mappings
/dpi2point 0 def

% font control
/FontSize 0 def
/FMS {
	/FontSize xstore		%save size off stack
	findfont
	[FontSize 0 0 FontSize neg 0 0]
	makefont
	setfont
	}bdef

/csm {
	1 dpi2point div -1 dpi2point div scale
	neg translate
	landscapeMode eq {90 rotate} if
	} bdef
% line types: solid, dotted, dashed, dotdash
/SO { [] 0 setdash } bdef
/DO { [.5 dpi2point mul 4 dpi2point mul] 0 setdash } bdef
/DA { [6 dpi2point mul] 0 setdash } bdef
/DD { [.5 dpi2point mul 4 dpi2point mul 6 dpi2point mul 4 dpi2point mul] 0 setdash } bdef

% macros for lines and objects
/L {
	lineto
	stroke
	} bdef
/MP {
	3 1 roll moveto
	1 sub {rlineto} repeat
	} bdef
/AP {
	{rlineto} repeat
	} bdef
/PP {
	closepath fill
	} bdef
/DP {
	closepath stroke
	} bdef
/MR {
	4 -2 roll moveto
	dup  0 exch rlineto
	exch 0 rlineto
	neg  0 exch rlineto
	closepath
	} bdef
/FR {
	MR stroke
	} bdef
/PR {
	MR fill
	} bdef
/L1i {
	{ currentfile picstr readhexstring pop } image
	} bdef

/tMatrix matrix def
/MakeOval {
	newpath
	tMatrix currentmatrix pop
	translate scale
	0 0 1 0 360 arc
	tMatrix setmatrix
	} bdef
/FO {
	MakeOval
	stroke
	} bdef
/PO {
	MakeOval
	fill
	} bdef

/PD {
	2 copy moveto lineto stroke
	} bdef


currentdict end def
%%EndProlog

%%BeginSetup
MathWorks begin

% fonts for text, standard numbers and exponents
%%IncludeFont: Times-Roman

%line width, line cap, and joint spec
0 cap 1 setlinejoin

end
%%EndSetup

%%Page: 1 1
%%BeginPageSetup
%%PageBoundingBox:    56   201   557   598
MathWorks begin
bpage
%%EndPageSetup

%%BeginObject: graph1 1
bplot

/dpi2point 12 def
portraitMode 0216 7344 csm

  464   167  6010  4764 MR c np
76 dict begin %Colortable dictionary
/c0 { 0 0 0 sc} bdef
/c1 { 1 1 1 sc} bdef
/c2 { 1 0 0 sc} bdef
/c3 { 0 1 0 sc} bdef
/c4 { 0 0 1 sc} bdef
/c5 { 1 1 0 sc} bdef
/c6 { 1 0 1 sc} bdef
/c7 { 0 1 1 sc} bdef

/Times-Roman 120 FMS

c1
   0    0 6920 5186 PR
6 w
DO
4 w
SO
6 w
c0
 553 4770 mt 6365 4770 L
 553 2800 mt 6365 2800 L
6365 4770 mt 6365 2800 L
 553 4770 mt  553 2800 L
6365 4770 mt 6365 4770 L
 553 4770 mt  553 4770 L
 553 4770 mt 6365 4770 L
 553 4770 mt  553 2800 L
 553 4770 mt  553 4770 L
 553 4770 mt  553 4770 L
 553 2800 mt  553 2800 L
 523 4904 mt 
(0) s
1000 4770 mt 1000 4770 L
1000 2800 mt 1000 2800 L
 970 4904 mt 
(1) s
1447 4770 mt 1447 4770 L
1447 2800 mt 1447 2800 L
1417 4904 mt 
(2) s
1894 4770 mt 1894 4770 L
1894 2800 mt 1894 2800 L
1864 4904 mt 
(3) s
2341 4770 mt 2341 4770 L
2341 2800 mt 2341 2800 L
2311 4904 mt 
(4) s
2788 4770 mt 2788 4770 L
2788 2800 mt 2788 2800 L
2758 4904 mt 
(5) s
3235 4770 mt 3235 4770 L
3235 2800 mt 3235 2800 L
3205 4904 mt 
(6) s
3683 4770 mt 3683 4770 L
3683 2800 mt 3683 2800 L
3653 4904 mt 
(7) s
4130 4770 mt 4130 4770 L
4130 2800 mt 4130 2800 L
4100 4904 mt 
(8) s
4577 4770 mt 4577 4770 L
4577 2800 mt 4577 2800 L
4547 4904 mt 
(9) s
5024 4770 mt 5024 4770 L
5024 2800 mt 5024 2800 L
4964 4904 mt 
(10) s
5471 4770 mt 5471 4770 L
5471 2800 mt 5471 2800 L
5411 4904 mt 
(11) s
5918 4770 mt 5918 4770 L
5918 2800 mt 5918 2800 L
5858 4904 mt 
(12) s
6365 4770 mt 6365 4770 L
6365 2800 mt 6365 2800 L
6305 4904 mt 
(13) s
 553 4647 mt  553 4647 L
6365 4647 mt 6365 4647 L
 466 4689 mt 
(1) s
 553 4401 mt  553 4401 L
6365 4401 mt 6365 4401 L
 466 4443 mt 
(2) s
 553 4154 mt  553 4154 L
6365 4154 mt 6365 4154 L
 466 4196 mt 
(3) s
 553 3908 mt  553 3908 L
6365 3908 mt 6365 3908 L
 466 3950 mt 
(4) s
 553 3662 mt  553 3662 L
6365 3662 mt 6365 3662 L
 466 3704 mt 
(5) s
 553 3416 mt  553 3416 L
6365 3416 mt 6365 3416 L
 466 3458 mt 
(6) s
 553 3169 mt  553 3169 L
6365 3169 mt 6365 3169 L
 466 3211 mt 
(7) s
 553 2923 mt  553 2923 L
6365 2923 mt 6365 2923 L
 466 2965 mt 
(8) s
 553 2800 mt 6365 2800 L
 553 4770 mt 6365 4770 L
 553 4770 mt  553 2800 L
6365 4770 mt 6365 2800 L
 553 2800 mt  553 2800 L
6365 2800 mt 6365 2800 L
gs 553 2800 5813 1971 MR c np
c3

-87 0 0 -1970 87 0 754 4770 4 MP  PP

-311 0 0 -1970 311 0 3168 4770 4 MP  PP

-271 0 0 -1970 271 0 6052 4770 4 MP  PP
c0

-7 0 0 -86 7 0 888 3662 4 MP  PP

-6 0 0 -87 6 0 895 3416 4 MP  PP

-6 0 0 -86 6 0 902 3169 4 MP  PP

-7 0 0 -86 7 0 908 2923 4 MP  PP

-7 0 0 -87 7 0 1715 3416 4 MP  PP

-6 0 0 -86 6 0 1722 2923 4 MP  PP

-6 0 0 -86 6 0 1729 3662 4 MP  PP

-6 0 0 -86 6 0 1736 3169 4 MP  PP

-6 0 0 -87 6 0 1742 3416 4 MP  PP

-6 0 0 -86 6 0 1749 2923 4 MP  PP

-6 0 0 -86 6 0 1769 3662 4 MP  PP

-6 0 0 -86 6 0 1776 3169 4 MP  PP

-7 0 0 -86 7 0 1782 3662 4 MP  PP

-6 0 0 -86 6 0 1789 3169 4 MP  PP

-13 0 0 -86 13 0 1796 4647 4 MP  PP

-7 0 0 -87 7 0 1809 3416 4 MP  PP

-6 0 0 -86 6 0 1816 2923 4 MP  PP

-6 0 0 -87 6 0 1823 3416 4 MP  PP

-7 0 0 -86 7 0 1829 2923 4 MP  PP

-13 0 0 -87 13 0 1836 4401 4 MP  PP

-6 0 0 -86 6 0 1850 3662 4 MP  PP

-6 0 0 -86 6 0 1856 3169 4 MP  PP

-6 0 0 -87 6 0 1863 3416 4 MP  PP

-6 0 0 -86 6 0 1870 2923 4 MP  PP

-7 0 0 -86 7 0 1876 3662 4 MP  PP

-6 0 0 -86 6 0 1883 3169 4 MP  PP

-157 0 0 -86 157 0 3548 4154 4 MP  PP

-157 0 0 -86 157 0 3705 3908 4 MP  PP
c2

-199 0 0 -86 199 0 555 4647 4 MP  PP

-199 0 0 -87 199 0 555 4401 4 MP  PP

-119 0 0 -86 119 0 635 3662 4 MP  PP

-119 0 0 -87 119 0 635 3416 4 MP  PP

-119 0 0 -86 119 0 635 3169 4 MP  PP

-119 0 0 -86 119 0 635 2923 4 MP  PP

-64 0 0 -86 64 0 777 4647 4 MP  PP

-64 0 0 -87 64 0 777 4401 4 MP  PP

-39 0 0 -86 39 0 802 3662 4 MP  PP

-39 0 0 -87 39 0 802 3416 4 MP  PP

-39 0 0 -86 39 0 802 3169 4 MP  PP

-39 0 0 -86 39 0 802 2923 4 MP  PP

-546 0 0 -86 546 0 1094 3662 4 MP  PP

-546 0 0 -87 546 0 1101 3416 4 MP  PP

-546 0 0 -86 546 0 1108 3169 4 MP  PP

-545 0 0 -86 545 0 1115 2923 4 MP  PP

-579 0 0 -86 579 0 1083 4154 4 MP  PP

-579 0 0 -86 579 0 1083 3908 4 MP  PP

-629 0 0 -87 629 0 1986 3416 4 MP  PP

-629 0 0 -86 629 0 1993 2923 4 MP  PP

-629 0 0 -86 629 0 1999 3662 4 MP  PP

-629 0 0 -86 629 0 2006 3169 4 MP  PP

-1084 0 0 -86 1084 0 2026 4647 4 MP  PP

-1085 0 0 -87 1085 0 2066 4401 4 MP  PP

-869 0 0 -86 869 0 2299 4154 4 MP  PP

-869 0 0 -86 869 0 2299 3908 4 MP  PP

-288 0 0 -86 288 0 3191 4154 4 MP  PP

-288 0 0 -86 288 0 3191 3908 4 MP  PP

-1630 0 0 -86 1630 0 3935 4154 4 MP  PP

-1630 0 0 -86 1630 0 4092 3908 4 MP  PP

-549 0 0 -86 549 0 5503 3662 4 MP  PP

-549 0 0 -87 549 0 5503 3416 4 MP  PP

-549 0 0 -86 549 0 5503 3169 4 MP  PP

-549 0 0 -86 549 0 5503 2923 4 MP  PP

-226 0 0 -86 226 0 6097 3662 4 MP  PP

-226 0 0 -87 226 0 6097 3416 4 MP  PP

-226 0 0 -86 226 0 6097 3169 4 MP  PP

-226 0 0 -86 226 0 6097 2923 4 MP  PP
c0
5812 0 553 4647 2 MP stroke
5812 0 553 4401 2 MP stroke
5812 0 553 4154 2 MP stroke
5812 0 553 3908 2 MP stroke
5812 0 553 3662 2 MP stroke
5812 0 553 3416 2 MP stroke
5812 0 553 3169 2 MP stroke
5812 0 553 2923 2 MP stroke
0 50 1000 4622 2 MP stroke
0 49 1000 4376 2 MP stroke
0 49 1000 4130 2 MP stroke
0 49 1000 3884 2 MP stroke
0 50 1000 3637 2 MP stroke
0 49 1000 3391 2 MP stroke
0 49 1000 3145 2 MP stroke
0 49 1000 2899 2 MP stroke
0 50 1447 4622 2 MP stroke
0 49 1447 4376 2 MP stroke
0 49 1447 4130 2 MP stroke
0 49 1447 3884 2 MP stroke
0 50 1447 3637 2 MP stroke
0 49 1447 3391 2 MP stroke
0 49 1447 3145 2 MP stroke
0 49 1447 2899 2 MP stroke
0 50 1894 4622 2 MP stroke
0 49 1894 4376 2 MP stroke
0 49 1894 4130 2 MP stroke
0 49 1894 3884 2 MP stroke
0 50 1894 3637 2 MP stroke
0 49 1894 3391 2 MP stroke
0 49 1894 3145 2 MP stroke
0 49 1894 2899 2 MP stroke
0 50 2341 4622 2 MP stroke
0 49 2341 4376 2 MP stroke
0 49 2341 4130 2 MP stroke
0 49 2341 3884 2 MP stroke
0 50 2341 3637 2 MP stroke
0 49 2341 3391 2 MP stroke
0 49 2341 3145 2 MP stroke
0 49 2341 2899 2 MP stroke
0 50 2788 4622 2 MP stroke
0 49 2788 4376 2 MP stroke
0 49 2788 4130 2 MP stroke
0 49 2788 3884 2 MP stroke
0 50 2788 3637 2 MP stroke
0 49 2788 3391 2 MP stroke
0 49 2788 3145 2 MP stroke
0 49 2788 2899 2 MP stroke
0 50 3235 4622 2 MP stroke
0 49 3235 4376 2 MP stroke
0 49 3235 4130 2 MP stroke
0 49 3235 3884 2 MP stroke
0 50 3235 3637 2 MP stroke
0 49 3235 3391 2 MP stroke
0 49 3235 3145 2 MP stroke
0 49 3235 2899 2 MP stroke
0 50 3683 4622 2 MP stroke
0 49 3683 4376 2 MP stroke
0 49 3683 4130 2 MP stroke
0 49 3683 3884 2 MP stroke
0 50 3683 3637 2 MP stroke
0 49 3683 3391 2 MP stroke
0 49 3683 3145 2 MP stroke
0 49 3683 2899 2 MP stroke
0 50 4130 4622 2 MP stroke
0 49 4130 4376 2 MP stroke
0 49 4130 4130 2 MP stroke
0 49 4130 3884 2 MP stroke
0 50 4130 3637 2 MP stroke
0 49 4130 3391 2 MP stroke
0 49 4130 3145 2 MP stroke
0 49 4130 2899 2 MP stroke
0 50 4577 4622 2 MP stroke
0 49 4577 4376 2 MP stroke
0 49 4577 4130 2 MP stroke
0 49 4577 3884 2 MP stroke
0 50 4577 3637 2 MP stroke
0 49 4577 3391 2 MP stroke
0 49 4577 3145 2 MP stroke
0 49 4577 2899 2 MP stroke
0 50 5024 4622 2 MP stroke
0 49 5024 4376 2 MP stroke
0 49 5024 4130 2 MP stroke
0 49 5024 3884 2 MP stroke
0 50 5024 3637 2 MP stroke
0 49 5024 3391 2 MP stroke
0 49 5024 3145 2 MP stroke
0 49 5024 2899 2 MP stroke
0 50 5471 4622 2 MP stroke
0 49 5471 4376 2 MP stroke
0 49 5471 4130 2 MP stroke
0 49 5471 3884 2 MP stroke
0 50 5471 3637 2 MP stroke
0 49 5471 3391 2 MP stroke
0 49 5471 3145 2 MP stroke
0 49 5471 2899 2 MP stroke
0 50 5918 4622 2 MP stroke
0 49 5918 4376 2 MP stroke
0 49 5918 4130 2 MP stroke
0 49 5918 3884 2 MP stroke
0 50 5918 3637 2 MP stroke
0 49 5918 3391 2 MP stroke
0 49 5918 3145 2 MP stroke
0 49 5918 2899 2 MP stroke
0 24 642 4635 2 MP stroke
0 25 642 4388 2 MP stroke
0 25 642 4142 2 MP stroke
0 24 642 3896 2 MP stroke
0 24 642 3650 2 MP stroke
0 25 642 3403 2 MP stroke
0 25 642 3157 2 MP stroke
0 24 642 2911 2 MP stroke
0 24 732 4635 2 MP stroke
0 25 732 4388 2 MP stroke
0 25 732 4142 2 MP stroke
0 24 732 3896 2 MP stroke
0 24 732 3650 2 MP stroke
0 25 732 3403 2 MP stroke
0 25 732 3157 2 MP stroke
0 24 732 2911 2 MP stroke
0 24 821 4635 2 MP stroke
0 25 821 4388 2 MP stroke
0 25 821 4142 2 MP stroke
0 24 821 3896 2 MP stroke
0 24 821 3650 2 MP stroke
0 25 821 3403 2 MP stroke
0 25 821 3157 2 MP stroke
0 24 821 2911 2 MP stroke
0 24 911 4635 2 MP stroke
0 25 911 4388 2 MP stroke
0 25 911 4142 2 MP stroke
0 24 911 3896 2 MP stroke
0 24 911 3650 2 MP stroke
0 25 911 3403 2 MP stroke
0 25 911 3157 2 MP stroke
0 24 911 2911 2 MP stroke
0 24 1000 4635 2 MP stroke
0 25 1000 4388 2 MP stroke
0 25 1000 4142 2 MP stroke
0 24 1000 3896 2 MP stroke
0 24 1000 3650 2 MP stroke
0 25 1000 3403 2 MP stroke
0 25 1000 3157 2 MP stroke
0 24 1000 2911 2 MP stroke
0 24 1089 4635 2 MP stroke
0 25 1089 4388 2 MP stroke
0 25 1089 4142 2 MP stroke
0 24 1089 3896 2 MP stroke
0 24 1089 3650 2 MP stroke
0 25 1089 3403 2 MP stroke
0 25 1089 3157 2 MP stroke
0 24 1089 2911 2 MP stroke
0 24 1179 4635 2 MP stroke
0 25 1179 4388 2 MP stroke
0 25 1179 4142 2 MP stroke
0 24 1179 3896 2 MP stroke
0 24 1179 3650 2 MP stroke
0 25 1179 3403 2 MP stroke
0 25 1179 3157 2 MP stroke
0 24 1179 2911 2 MP stroke
0 24 1268 4635 2 MP stroke
0 25 1268 4388 2 MP stroke
0 25 1268 4142 2 MP stroke
0 24 1268 3896 2 MP stroke
0 24 1268 3650 2 MP stroke
0 25 1268 3403 2 MP stroke
0 25 1268 3157 2 MP stroke
0 24 1268 2911 2 MP stroke
0 24 1358 4635 2 MP stroke
0 25 1358 4388 2 MP stroke
0 25 1358 4142 2 MP stroke
0 24 1358 3896 2 MP stroke
0 24 1358 3650 2 MP stroke
0 25 1358 3403 2 MP stroke
0 25 1358 3157 2 MP stroke
0 24 1358 2911 2 MP stroke
0 24 1447 4635 2 MP stroke
0 25 1447 4388 2 MP stroke
0 25 1447 4142 2 MP stroke
0 24 1447 3896 2 MP stroke
0 24 1447 3650 2 MP stroke
0 25 1447 3403 2 MP stroke
0 25 1447 3157 2 MP stroke
0 24 1447 2911 2 MP stroke
0 24 1537 4635 2 MP stroke
0 25 1537 4388 2 MP stroke
0 25 1537 4142 2 MP stroke
0 24 1537 3896 2 MP stroke
0 24 1537 3650 2 MP stroke
0 25 1537 3403 2 MP stroke
0 25 1537 3157 2 MP stroke
0 24 1537 2911 2 MP stroke
0 24 1626 4635 2 MP stroke
0 25 1626 4388 2 MP stroke
0 25 1626 4142 2 MP stroke
0 24 1626 3896 2 MP stroke
0 24 1626 3650 2 MP stroke
0 25 1626 3403 2 MP stroke
0 25 1626 3157 2 MP stroke
0 24 1626 2911 2 MP stroke
0 24 1715 4635 2 MP stroke
0 25 1715 4388 2 MP stroke
0 25 1715 4142 2 MP stroke
0 24 1715 3896 2 MP stroke
0 24 1715 3650 2 MP stroke
0 25 1715 3403 2 MP stroke
0 25 1715 3157 2 MP stroke
0 24 1715 2911 2 MP stroke
0 24 1805 4635 2 MP stroke
0 25 1805 4388 2 MP stroke
0 25 1805 4142 2 MP stroke
0 24 1805 3896 2 MP stroke
0 24 1805 3650 2 MP stroke
0 25 1805 3403 2 MP stroke
0 25 1805 3157 2 MP stroke
0 24 1805 2911 2 MP stroke
0 24 1894 4635 2 MP stroke
0 25 1894 4388 2 MP stroke
0 25 1894 4142 2 MP stroke
0 24 1894 3896 2 MP stroke
0 24 1894 3650 2 MP stroke
0 25 1894 3403 2 MP stroke
0 25 1894 3157 2 MP stroke
0 24 1894 2911 2 MP stroke
0 24 1984 4635 2 MP stroke
0 25 1984 4388 2 MP stroke
0 25 1984 4142 2 MP stroke
0 24 1984 3896 2 MP stroke
0 24 1984 3650 2 MP stroke
0 25 1984 3403 2 MP stroke
0 25 1984 3157 2 MP stroke
0 24 1984 2911 2 MP stroke
0 24 2073 4635 2 MP stroke
0 25 2073 4388 2 MP stroke
0 25 2073 4142 2 MP stroke
0 24 2073 3896 2 MP stroke
0 24 2073 3650 2 MP stroke
0 25 2073 3403 2 MP stroke
0 25 2073 3157 2 MP stroke
0 24 2073 2911 2 MP stroke
0 24 2162 4635 2 MP stroke
0 25 2162 4388 2 MP stroke
0 25 2162 4142 2 MP stroke
0 24 2162 3896 2 MP stroke
0 24 2162 3650 2 MP stroke
0 25 2162 3403 2 MP stroke
0 25 2162 3157 2 MP stroke
0 24 2162 2911 2 MP stroke
0 24 2252 4635 2 MP stroke
0 25 2252 4388 2 MP stroke
0 25 2252 4142 2 MP stroke
0 24 2252 3896 2 MP stroke
0 24 2252 3650 2 MP stroke
0 25 2252 3403 2 MP stroke
0 25 2252 3157 2 MP stroke
0 24 2252 2911 2 MP stroke
0 24 2341 4635 2 MP stroke
0 25 2341 4388 2 MP stroke
0 25 2341 4142 2 MP stroke
0 24 2341 3896 2 MP stroke
0 24 2341 3650 2 MP stroke
0 25 2341 3403 2 MP stroke
0 25 2341 3157 2 MP stroke
0 24 2341 2911 2 MP stroke
0 24 2431 4635 2 MP stroke
0 25 2431 4388 2 MP stroke
0 25 2431 4142 2 MP stroke
0 24 2431 3896 2 MP stroke
0 24 2431 3650 2 MP stroke
0 25 2431 3403 2 MP stroke
0 25 2431 3157 2 MP stroke
0 24 2431 2911 2 MP stroke
0 24 2520 4635 2 MP stroke
0 25 2520 4388 2 MP stroke
0 25 2520 4142 2 MP stroke
0 24 2520 3896 2 MP stroke
0 24 2520 3650 2 MP stroke
0 25 2520 3403 2 MP stroke
0 25 2520 3157 2 MP stroke
0 24 2520 2911 2 MP stroke
0 24 2610 4635 2 MP stroke
0 25 2610 4388 2 MP stroke
0 25 2610 4142 2 MP stroke
0 24 2610 3896 2 MP stroke
0 24 2610 3650 2 MP stroke
0 25 2610 3403 2 MP stroke
0 25 2610 3157 2 MP stroke
0 24 2610 2911 2 MP stroke
0 24 2699 4635 2 MP stroke
0 25 2699 4388 2 MP stroke
0 25 2699 4142 2 MP stroke
0 24 2699 3896 2 MP stroke
0 24 2699 3650 2 MP stroke
0 25 2699 3403 2 MP stroke
0 25 2699 3157 2 MP stroke
0 24 2699 2911 2 MP stroke
0 24 2788 4635 2 MP stroke
0 25 2788 4388 2 MP stroke
0 25 2788 4142 2 MP stroke
0 24 2788 3896 2 MP stroke
0 24 2788 3650 2 MP stroke
0 25 2788 3403 2 MP stroke
0 25 2788 3157 2 MP stroke
0 24 2788 2911 2 MP stroke
0 24 2878 4635 2 MP stroke
0 25 2878 4388 2 MP stroke
0 25 2878 4142 2 MP stroke
0 24 2878 3896 2 MP stroke
0 24 2878 3650 2 MP stroke
0 25 2878 3403 2 MP stroke
0 25 2878 3157 2 MP stroke
0 24 2878 2911 2 MP stroke
0 24 2967 4635 2 MP stroke
0 25 2967 4388 2 MP stroke
0 25 2967 4142 2 MP stroke
0 24 2967 3896 2 MP stroke
0 24 2967 3650 2 MP stroke
0 25 2967 3403 2 MP stroke
0 25 2967 3157 2 MP stroke
0 24 2967 2911 2 MP stroke
0 24 3057 4635 2 MP stroke
0 25 3057 4388 2 MP stroke
0 25 3057 4142 2 MP stroke
0 24 3057 3896 2 MP stroke
0 24 3057 3650 2 MP stroke
0 25 3057 3403 2 MP stroke
0 25 3057 3157 2 MP stroke
0 24 3057 2911 2 MP stroke
0 24 3146 4635 2 MP stroke
0 25 3146 4388 2 MP stroke
0 25 3146 4142 2 MP stroke
0 24 3146 3896 2 MP stroke
0 24 3146 3650 2 MP stroke
0 25 3146 3403 2 MP stroke
0 25 3146 3157 2 MP stroke
0 24 3146 2911 2 MP stroke
0 24 3235 4635 2 MP stroke
0 25 3235 4388 2 MP stroke
0 25 3235 4142 2 MP stroke
0 24 3235 3896 2 MP stroke
0 24 3235 3650 2 MP stroke
0 25 3235 3403 2 MP stroke
0 25 3235 3157 2 MP stroke
0 24 3235 2911 2 MP stroke
0 24 3325 4635 2 MP stroke
0 25 3325 4388 2 MP stroke
0 25 3325 4142 2 MP stroke
0 24 3325 3896 2 MP stroke
0 24 3325 3650 2 MP stroke
0 25 3325 3403 2 MP stroke
0 25 3325 3157 2 MP stroke
0 24 3325 2911 2 MP stroke
0 24 3414 4635 2 MP stroke
0 25 3414 4388 2 MP stroke
0 25 3414 4142 2 MP stroke
0 24 3414 3896 2 MP stroke
0 24 3414 3650 2 MP stroke
0 25 3414 3403 2 MP stroke
0 25 3414 3157 2 MP stroke
0 24 3414 2911 2 MP stroke
0 24 3504 4635 2 MP stroke
0 25 3504 4388 2 MP stroke
0 25 3504 4142 2 MP stroke
0 24 3504 3896 2 MP stroke
0 24 3504 3650 2 MP stroke
0 25 3504 3403 2 MP stroke
0 25 3504 3157 2 MP stroke
0 24 3504 2911 2 MP stroke
0 24 3593 4635 2 MP stroke
0 25 3593 4388 2 MP stroke
0 25 3593 4142 2 MP stroke
0 24 3593 3896 2 MP stroke
0 24 3593 3650 2 MP stroke
0 25 3593 3403 2 MP stroke
0 25 3593 3157 2 MP stroke
0 24 3593 2911 2 MP stroke
0 24 3683 4635 2 MP stroke
0 25 3683 4388 2 MP stroke
0 25 3683 4142 2 MP stroke
0 24 3683 3896 2 MP stroke
0 24 3683 3650 2 MP stroke
0 25 3683 3403 2 MP stroke
0 25 3683 3157 2 MP stroke
0 24 3683 2911 2 MP stroke
0 24 3772 4635 2 MP stroke
0 25 3772 4388 2 MP stroke
0 25 3772 4142 2 MP stroke
0 24 3772 3896 2 MP stroke
0 24 3772 3650 2 MP stroke
0 25 3772 3403 2 MP stroke
0 25 3772 3157 2 MP stroke
0 24 3772 2911 2 MP stroke
0 24 3861 4635 2 MP stroke
0 25 3861 4388 2 MP stroke
0 25 3861 4142 2 MP stroke
0 24 3861 3896 2 MP stroke
0 24 3861 3650 2 MP stroke
0 25 3861 3403 2 MP stroke
0 25 3861 3157 2 MP stroke
0 24 3861 2911 2 MP stroke
0 24 3951 4635 2 MP stroke
0 25 3951 4388 2 MP stroke
0 25 3951 4142 2 MP stroke
0 24 3951 3896 2 MP stroke
0 24 3951 3650 2 MP stroke
0 25 3951 3403 2 MP stroke
0 25 3951 3157 2 MP stroke
0 24 3951 2911 2 MP stroke
0 24 4040 4635 2 MP stroke
0 25 4040 4388 2 MP stroke
0 25 4040 4142 2 MP stroke
0 24 4040 3896 2 MP stroke
0 24 4040 3650 2 MP stroke
0 25 4040 3403 2 MP stroke
0 25 4040 3157 2 MP stroke
0 24 4040 2911 2 MP stroke
0 24 4130 4635 2 MP stroke
0 25 4130 4388 2 MP stroke
0 25 4130 4142 2 MP stroke
0 24 4130 3896 2 MP stroke
0 24 4130 3650 2 MP stroke
0 25 4130 3403 2 MP stroke
0 25 4130 3157 2 MP stroke
0 24 4130 2911 2 MP stroke
0 24 4219 4635 2 MP stroke
0 25 4219 4388 2 MP stroke
0 25 4219 4142 2 MP stroke
0 24 4219 3896 2 MP stroke
0 24 4219 3650 2 MP stroke
0 25 4219 3403 2 MP stroke
0 25 4219 3157 2 MP stroke
0 24 4219 2911 2 MP stroke
0 24 4308 4635 2 MP stroke
0 25 4308 4388 2 MP stroke
0 25 4308 4142 2 MP stroke
0 24 4308 3896 2 MP stroke
0 24 4308 3650 2 MP stroke
0 25 4308 3403 2 MP stroke
0 25 4308 3157 2 MP stroke
0 24 4308 2911 2 MP stroke
0 24 4398 4635 2 MP stroke
0 25 4398 4388 2 MP stroke
0 25 4398 4142 2 MP stroke
0 24 4398 3896 2 MP stroke
0 24 4398 3650 2 MP stroke
0 25 4398 3403 2 MP stroke
0 25 4398 3157 2 MP stroke
0 24 4398 2911 2 MP stroke
0 24 4487 4635 2 MP stroke
0 25 4487 4388 2 MP stroke
0 25 4487 4142 2 MP stroke
0 24 4487 3896 2 MP stroke
0 24 4487 3650 2 MP stroke
0 25 4487 3403 2 MP stroke
0 25 4487 3157 2 MP stroke
0 24 4487 2911 2 MP stroke
0 24 4577 4635 2 MP stroke
0 25 4577 4388 2 MP stroke
0 25 4577 4142 2 MP stroke
0 24 4577 3896 2 MP stroke
0 24 4577 3650 2 MP stroke
0 25 4577 3403 2 MP stroke
0 25 4577 3157 2 MP stroke
0 24 4577 2911 2 MP stroke
0 24 4666 4635 2 MP stroke
0 25 4666 4388 2 MP stroke
0 25 4666 4142 2 MP stroke
0 24 4666 3896 2 MP stroke
0 24 4666 3650 2 MP stroke
0 25 4666 3403 2 MP stroke
0 25 4666 3157 2 MP stroke
0 24 4666 2911 2 MP stroke
0 24 4756 4635 2 MP stroke
0 25 4756 4388 2 MP stroke
0 25 4756 4142 2 MP stroke
0 24 4756 3896 2 MP stroke
0 24 4756 3650 2 MP stroke
0 25 4756 3403 2 MP stroke
0 25 4756 3157 2 MP stroke
0 24 4756 2911 2 MP stroke
0 24 4845 4635 2 MP stroke
0 25 4845 4388 2 MP stroke
0 25 4845 4142 2 MP stroke
0 24 4845 3896 2 MP stroke
0 24 4845 3650 2 MP stroke
0 25 4845 3403 2 MP stroke
0 25 4845 3157 2 MP stroke
0 24 4845 2911 2 MP stroke
0 24 4934 4635 2 MP stroke
0 25 4934 4388 2 MP stroke
0 25 4934 4142 2 MP stroke
0 24 4934 3896 2 MP stroke
0 24 4934 3650 2 MP stroke
0 25 4934 3403 2 MP stroke
0 25 4934 3157 2 MP stroke
0 24 4934 2911 2 MP stroke
0 24 5024 4635 2 MP stroke
0 25 5024 4388 2 MP stroke
0 25 5024 4142 2 MP stroke
0 24 5024 3896 2 MP stroke
0 24 5024 3650 2 MP stroke
0 25 5024 3403 2 MP stroke
0 25 5024 3157 2 MP stroke
0 24 5024 2911 2 MP stroke
0 24 5113 4635 2 MP stroke
0 25 5113 4388 2 MP stroke
0 25 5113 4142 2 MP stroke
0 24 5113 3896 2 MP stroke
0 24 5113 3650 2 MP stroke
0 25 5113 3403 2 MP stroke
0 25 5113 3157 2 MP stroke
0 24 5113 2911 2 MP stroke
0 24 5203 4635 2 MP stroke
0 25 5203 4388 2 MP stroke
0 25 5203 4142 2 MP stroke
0 24 5203 3896 2 MP stroke
0 24 5203 3650 2 MP stroke
0 25 5203 3403 2 MP stroke
0 25 5203 3157 2 MP stroke
0 24 5203 2911 2 MP stroke
0 24 5292 4635 2 MP stroke
0 25 5292 4388 2 MP stroke
0 25 5292 4142 2 MP stroke
0 24 5292 3896 2 MP stroke
0 24 5292 3650 2 MP stroke
0 25 5292 3403 2 MP stroke
0 25 5292 3157 2 MP stroke
0 24 5292 2911 2 MP stroke
0 24 5381 4635 2 MP stroke
0 25 5381 4388 2 MP stroke
0 25 5381 4142 2 MP stroke
0 24 5381 3896 2 MP stroke
0 24 5381 3650 2 MP stroke
0 25 5381 3403 2 MP stroke
0 25 5381 3157 2 MP stroke
0 24 5381 2911 2 MP stroke
0 24 5471 4635 2 MP stroke
0 25 5471 4388 2 MP stroke
0 25 5471 4142 2 MP stroke
0 24 5471 3896 2 MP stroke
0 24 5471 3650 2 MP stroke
0 25 5471 3403 2 MP stroke
0 25 5471 3157 2 MP stroke
0 24 5471 2911 2 MP stroke
0 24 5560 4635 2 MP stroke
0 25 5560 4388 2 MP stroke
0 25 5560 4142 2 MP stroke
0 24 5560 3896 2 MP stroke
0 24 5560 3650 2 MP stroke
0 25 5560 3403 2 MP stroke
0 25 5560 3157 2 MP stroke
0 24 5560 2911 2 MP stroke
0 24 5650 4635 2 MP stroke
0 25 5650 4388 2 MP stroke
0 25 5650 4142 2 MP stroke
0 24 5650 3896 2 MP stroke
0 24 5650 3650 2 MP stroke
0 25 5650 3403 2 MP stroke
0 25 5650 3157 2 MP stroke
0 24 5650 2911 2 MP stroke
0 24 5739 4635 2 MP stroke
0 25 5739 4388 2 MP stroke
0 25 5739 4142 2 MP stroke
0 24 5739 3896 2 MP stroke
0 24 5739 3650 2 MP stroke
0 25 5739 3403 2 MP stroke
0 25 5739 3157 2 MP stroke
0 24 5739 2911 2 MP stroke
0 24 5829 4635 2 MP stroke
0 25 5829 4388 2 MP stroke
0 25 5829 4142 2 MP stroke
0 24 5829 3896 2 MP stroke
0 24 5829 3650 2 MP stroke
0 25 5829 3403 2 MP stroke
0 25 5829 3157 2 MP stroke
0 24 5829 2911 2 MP stroke
0 24 5918 4635 2 MP stroke
0 25 5918 4388 2 MP stroke
0 25 5918 4142 2 MP stroke
0 24 5918 3896 2 MP stroke
0 24 5918 3650 2 MP stroke
0 25 5918 3403 2 MP stroke
0 25 5918 3157 2 MP stroke
0 24 5918 2911 2 MP stroke
0 24 6007 4635 2 MP stroke
0 25 6007 4388 2 MP stroke
0 25 6007 4142 2 MP stroke
0 24 6007 3896 2 MP stroke
0 24 6007 3650 2 MP stroke
0 25 6007 3403 2 MP stroke
0 25 6007 3157 2 MP stroke
0 24 6007 2911 2 MP stroke
0 24 6097 4635 2 MP stroke
0 25 6097 4388 2 MP stroke
0 25 6097 4142 2 MP stroke
0 24 6097 3896 2 MP stroke
0 24 6097 3650 2 MP stroke
0 25 6097 3403 2 MP stroke
0 25 6097 3157 2 MP stroke
0 24 6097 2911 2 MP stroke
0 24 6186 4635 2 MP stroke
0 25 6186 4388 2 MP stroke
0 25 6186 4142 2 MP stroke
0 24 6186 3896 2 MP stroke
0 24 6186 3650 2 MP stroke
0 25 6186 3403 2 MP stroke
0 25 6186 3157 2 MP stroke
0 24 6186 2911 2 MP stroke
0 24 6276 4635 2 MP stroke
0 25 6276 4388 2 MP stroke
0 25 6276 4142 2 MP stroke
0 24 6276 3896 2 MP stroke
0 24 6276 3650 2 MP stroke
0 25 6276 3403 2 MP stroke
0 25 6276 3157 2 MP stroke
0 24 6276 2911 2 MP stroke
gr 
DO
4 w
SO
6 w
 553 2384 mt 6365 2384 L
 553  414 mt 6365  414 L
6365 2384 mt 6365  414 L
 553 2384 mt  553  414 L
6365 2384 mt 6365 2384 L
 553 2384 mt  553 2384 L
 553 2384 mt 6365 2384 L
 553 2384 mt  553  414 L
 553 2384 mt  553 2384 L
 553 2384 mt  553 2384 L
 553  414 mt  553  414 L
 523 2518 mt 
(0) s
1715 2384 mt 1715 2384 L
1715  414 mt 1715  414 L
1685 2518 mt 
(1) s
2878 2384 mt 2878 2384 L
2878  414 mt 2878  414 L
2848 2518 mt 
(2) s
4040 2384 mt 4040 2384 L
4040  414 mt 4040  414 L
4010 2518 mt 
(3) s
5203 2384 mt 5203 2384 L
5203  414 mt 5203  414 L
5173 2518 mt 
(4) s
6365 2384 mt 6365 2384 L
6365  414 mt 6365  414 L
6335 2518 mt 
(5) s
 553 2138 mt  553 2138 L
6365 2138 mt 6365 2138 L
 466 2180 mt 
(5) s
 553 1645 mt  553 1645 L
6365 1645 mt 6365 1645 L
 466 1687 mt 
(6) s
 553 1153 mt  553 1153 L
6365 1153 mt 6365 1153 L
 466 1195 mt 
(7) s
 553  660 mt  553  660 L
6365  660 mt 6365  660 L
 466  702 mt 
(8) s
 553  414 mt 6365  414 L
 553 2384 mt 6365 2384 L
 553 2384 mt  553  414 L
6365 2384 mt 6365  414 L
 553  414 mt  553  414 L
6365  414 mt 6365  414 L
2914  322 mt 
( CP1H timing diagram) s
gs 553 414 5813 1971 MR c np
c3

-227 0 0 -1970 227 0 1076 2384 4 MP  PP
c0

-16 0 0 -173 16 0 1425 2138 4 MP  PP

-17 0 0 -172 17 0 1442 1645 4 MP  PP

-16 0 0 -173 16 0 1460 1153 4 MP  PP

-16 0 0 -172 16 0 1477 660 4 MP  PP

-17 0 0 -172 17 0 3575 1645 4 MP  PP

-16 0 0 -172 16 0 3593 660 4 MP  PP

-16 0 0 -173 16 0 3610 2138 4 MP  PP

-16 0 0 -173 16 0 3628 1153 4 MP  PP

-16 0 0 -172 16 0 3645 1645 4 MP  PP

-17 0 0 -172 17 0 3662 660 4 MP  PP

-16 0 0 -173 16 0 3715 2138 4 MP  PP

-16 0 0 -173 16 0 3732 1153 4 MP  PP

-16 0 0 -173 16 0 3750 2138 4 MP  PP

-16 0 0 -173 16 0 3767 1153 4 MP  PP

-17 0 0 -172 17 0 3819 1645 4 MP  PP

-16 0 0 -172 16 0 3837 660 4 MP  PP

-16 0 0 -172 16 0 3854 1645 4 MP  PP

-16 0 0 -172 16 0 3872 660 4 MP  PP

-16 0 0 -173 16 0 3924 2138 4 MP  PP

-17 0 0 -173 17 0 3941 1153 4 MP  PP

-16 0 0 -172 16 0 3959 1645 4 MP  PP

-17 0 0 -172 17 0 3976 660 4 MP  PP

-16 0 0 -173 16 0 3994 2138 4 MP  PP

-16 0 0 -173 16 0 4011 1153 4 MP  PP
c2

-310 0 0 -173 310 0 766 2138 4 MP  PP

-310 0 0 -172 310 0 766 1645 4 MP  PP

-310 0 0 -173 310 0 766 1153 4 MP  PP

-310 0 0 -172 310 0 766 660 4 MP  PP

-101 0 0 -173 101 0 1202 2138 4 MP  PP

-101 0 0 -172 101 0 1202 1645 4 MP  PP

-101 0 0 -173 101 0 1202 1153 4 MP  PP

-101 0 0 -172 101 0 1202 660 4 MP  PP

-1419 0 0 -173 1419 0 1961 2138 4 MP  PP

-1419 0 0 -172 1419 0 1978 1645 4 MP  PP

-1419 0 0 -173 1419 0 1996 1153 4 MP  PP

-1419 0 0 -172 1419 0 2013 660 4 MP  PP

-1636 0 0 -172 1636 0 4278 1645 4 MP  PP

-1635 0 0 -172 1635 0 4296 660 4 MP  PP

-1636 0 0 -173 1636 0 4313 2138 4 MP  PP

-1635 0 0 -173 1635 0 4331 1153 4 MP  PP
c0
5812 0 553 2138 2 MP stroke
5812 0 553 1645 2 MP stroke
5812 0 553 1153 2 MP stroke
5812 0 553 660 2 MP stroke
0 98 1715 2089 2 MP stroke
0 99 1715 1596 2 MP stroke
0 98 1715 1104 2 MP stroke
0 98 1715 611 2 MP stroke
0 98 2878 2089 2 MP stroke
0 99 2878 1596 2 MP stroke
0 98 2878 1104 2 MP stroke
0 98 2878 611 2 MP stroke
0 98 4040 2089 2 MP stroke
0 99 4040 1596 2 MP stroke
0 98 4040 1104 2 MP stroke
0 98 4040 611 2 MP stroke
0 98 5203 2089 2 MP stroke
0 99 5203 1596 2 MP stroke
0 98 5203 1104 2 MP stroke
0 98 5203 611 2 MP stroke
0 49 785 2113 2 MP stroke
0 49 785 1621 2 MP stroke
0 49 785 1128 2 MP stroke
0 49 785 636 2 MP stroke
0 49 1018 2113 2 MP stroke
0 49 1018 1621 2 MP stroke
0 49 1018 1128 2 MP stroke
0 49 1018 636 2 MP stroke
0 49 1250 2113 2 MP stroke
0 49 1250 1621 2 MP stroke
0 49 1250 1128 2 MP stroke
0 49 1250 636 2 MP stroke
0 49 1483 2113 2 MP stroke
0 49 1483 1621 2 MP stroke
0 49 1483 1128 2 MP stroke
0 49 1483 636 2 MP stroke
0 49 1715 2113 2 MP stroke
0 49 1715 1621 2 MP stroke
0 49 1715 1128 2 MP stroke
0 49 1715 636 2 MP stroke
0 49 1948 2113 2 MP stroke
0 49 1948 1621 2 MP stroke
0 49 1948 1128 2 MP stroke
0 49 1948 636 2 MP stroke
0 49 2180 2113 2 MP stroke
0 49 2180 1621 2 MP stroke
0 49 2180 1128 2 MP stroke
0 49 2180 636 2 MP stroke
0 49 2413 2113 2 MP stroke
0 49 2413 1621 2 MP stroke
0 49 2413 1128 2 MP stroke
0 49 2413 636 2 MP stroke
0 49 2645 2113 2 MP stroke
0 49 2645 1621 2 MP stroke
0 49 2645 1128 2 MP stroke
0 49 2645 636 2 MP stroke
0 49 2878 2113 2 MP stroke
0 49 2878 1621 2 MP stroke
0 49 2878 1128 2 MP stroke
0 49 2878 636 2 MP stroke
0 49 3110 2113 2 MP stroke
0 49 3110 1621 2 MP stroke
0 49 3110 1128 2 MP stroke
0 49 3110 636 2 MP stroke
0 49 3343 2113 2 MP stroke
0 49 3343 1621 2 MP stroke
0 49 3343 1128 2 MP stroke
0 49 3343 636 2 MP stroke
0 49 3575 2113 2 MP stroke
0 49 3575 1621 2 MP stroke
0 49 3575 1128 2 MP stroke
0 49 3575 636 2 MP stroke
0 49 3808 2113 2 MP stroke
0 49 3808 1621 2 MP stroke
0 49 3808 1128 2 MP stroke
0 49 3808 636 2 MP stroke
0 49 4040 2113 2 MP stroke
0 49 4040 1621 2 MP stroke
0 49 4040 1128 2 MP stroke
0 49 4040 636 2 MP stroke
0 49 4273 2113 2 MP stroke
0 49 4273 1621 2 MP stroke
0 49 4273 1128 2 MP stroke
0 49 4273 636 2 MP stroke
0 49 4505 2113 2 MP stroke
0 49 4505 1621 2 MP stroke
0 49 4505 1128 2 MP stroke
0 49 4505 636 2 MP stroke
0 49 4738 2113 2 MP stroke
0 49 4738 1621 2 MP stroke
0 49 4738 1128 2 MP stroke
0 49 4738 636 2 MP stroke
0 49 4970 2113 2 MP stroke
0 49 4970 1621 2 MP stroke
0 49 4970 1128 2 MP stroke
0 49 4970 636 2 MP stroke
0 49 5203 2113 2 MP stroke
0 49 5203 1621 2 MP stroke
0 49 5203 1128 2 MP stroke
0 49 5203 636 2 MP stroke
0 49 5435 2113 2 MP stroke
0 49 5435 1621 2 MP stroke
0 49 5435 1128 2 MP stroke
0 49 5435 636 2 MP stroke
0 49 5668 2113 2 MP stroke
0 49 5668 1621 2 MP stroke
0 49 5668 1128 2 MP stroke
0 49 5668 636 2 MP stroke
0 49 5900 2113 2 MP stroke
0 49 5900 1621 2 MP stroke
0 49 5900 1128 2 MP stroke
0 49 5900 636 2 MP stroke
0 49 6133 2113 2 MP stroke
0 49 6133 1621 2 MP stroke
0 49 6133 1128 2 MP stroke
0 49 6133 636 2 MP stroke
gr 
gs 0 0 560 420 MR c np

end

eplot
%%EndObject graph 1

epage
end

showpage

%%Trailer
%%EOF
